{
    "Encoding": "UTF-8",
    "KPlugin": {
        "Category": "Plugins",
        "Description": "Rocs Graph File Format (old)",
        "Description[ca@valencia]": "Format de fitxer de grafs de Rocs (antic)",
        "Description[ca]": "Format de fitxer de grafs del Rocs (antic)",
        "Description[cs]": "Formát souborů grafů Rocs (starý)",
        "Description[de]": "Rocs-Graphendatei-Format (veraltet)",
        "Description[el]": "Τύπος αποθήκευσης αρχείων γράφων του Rocs (παλαιός)",
        "Description[en_GB]": "Rocs Graph File Format (old)",
        "Description[es]": "Formato de archivo de grafos de Rocs (antiguo)",
        "Description[et]": "Rocsi graafifaili vorming (vana)",
        "Description[eu]": "Rocs grafiko fitxategi-formatua (zaharra)",
        "Description[fi]": "Rocsin graafitiedostomuoto (vanha)",
        "Description[fr]": "Format de fichier de graphe Rocs (ancien)",
        "Description[gl]": "Formato de ficheiro de gráficos de Rocs (vello)",
        "Description[it]": "Formato di file di grafi di Rocs (vecchio)",
        "Description[ko]": "Rocs 그래프 파일 형식(이전)",
        "Description[nl]": "Bestandsformaat voor Rocs Graph (oud)",
        "Description[pl]": "Format plików grafów Rocs (stary)",
        "Description[pt]": "Formato de Ficheiro de Grafo do Rocs (antigo)",
        "Description[pt_BR]": "Formato de arquivo de grafo do Rocs (antigo)",
        "Description[ru]": "Формат файлов графов Rocs 1 (старый формат)",
        "Description[sk]": "Súborový formát grafu Rocs (starý)",
        "Description[sl]": "Vrsta datotek z grafi Rocs (stara)",
        "Description[sv]": "Rocs-graffilformat (gammalt)",
        "Description[tr]": "Rocs Grafik Dosya Biçimi (eski)",
        "Description[uk]": "формат файлів графів Rocs (застарілий)",
        "Description[x-test]": "xxRocs Graph File Format (old)xx",
        "Description[zh_CN]": "Rocs 图形文件格式 (旧)",
        "Description[zh_TW]": "Rocs 圖形檔案格式（舊）",
        "Id": "rocs_rocs1fileformat",
        "License": "GPL",
        "Name": "Rocs File Format (old)",
        "Name[ca@valencia]": "Format de fitxer de Rocs (antic)",
        "Name[ca]": "Format de fitxer del Rocs (antic)",
        "Name[cs]": "Formát souborů Rocs (starý)",
        "Name[de]": "Rocs-Dateiformat (veraltet)",
        "Name[el]": "Τύπος αποθήκευσης αρχείων του Rocs (παλαιός)",
        "Name[en_GB]": "Rocs File Format (old)",
        "Name[es]": "Formato de archivo de Rocs (antiguo)",
        "Name[et]": "Rocsi failivorming (vana)",
        "Name[eu]": "Rocs fitxategi-formatua (zaharra)",
        "Name[fi]": "Rocsin tiedostomuoto (vanha)",
        "Name[fr]": "Format de fichier Rocs (ancien)",
        "Name[gl]": "Formato de ficheiro de Rocs (vello)",
        "Name[it]": "Formato di file di Rocs (vecchio)",
        "Name[ko]": "Rocs 파일 형식(이전)",
        "Name[nl]": "Rocs-bestandsformaat (oud)",
        "Name[pl]": "Format plików Rocs (stary)",
        "Name[pt]": "Formato de Ficheiro do Rocs (antigo)",
        "Name[pt_BR]": "Formato de arquivo do Rocs (antigo)",
        "Name[ru]": "Поддержка файлов графов Rocs 1 (старый формат)",
        "Name[sk]": "Formát súborov Rocs (starý)",
        "Name[sl]": "Vrsta datotek Rocs (stara)",
        "Name[sv]": "Rocs-filformat (gammalt)",
        "Name[tr]": "Rocs Dosya Biçimi (eski)",
        "Name[uk]": "формат файлів Rocs (застарілий)",
        "Name[x-test]": "xxRocs File Format (old)xx",
        "Name[zh_CN]": "Rocs 文件格式 (旧版)",
        "Name[zh_TW]": "Rocs 檔案格式（舊）",
        "Version": "0.1"
    }
}
