{
    "Encoding": "UTF-8",
    "KPlugin": {
        "Category": "Plugins",
        "Description": "Rocs Graph File Format",
        "Description[ca@valencia]": "Format de fitxer de graf de Rocs",
        "Description[ca]": "Format de fitxer de graf del Rocs",
        "Description[cs]": "Formát souborů grafů Rocs",
        "Description[de]": "Rocs-Graphendatei-Format",
        "Description[el]": "Τύπος αποθήκευσης αρχείων γράφων Rocs",
        "Description[en_GB]": "Rocs Graph File Format",
        "Description[es]": "Formato de archivo de grafos de Rocs",
        "Description[et]": "Rocsi graafifaili vorming",
        "Description[eu]": "Rocs grafiko fitxategi-formatua",
        "Description[fi]": "Rocsin graafitiedostomuoto",
        "Description[fr]": "Format de fichier de graphe Rocs",
        "Description[gl]": "Formato de ficheiro de gráficos de Rocs",
        "Description[it]": "Formato di file di grafi di Rocs",
        "Description[ko]": "그래프 파일 형식",
        "Description[nl]": "Bestandsformaat voor Rocs Graph",
        "Description[pl]": "Format plików grafów Rocs",
        "Description[pt]": "Formato de Ficheiro de Grafo do Rocs",
        "Description[pt_BR]": "Formato de arquivo de grafo do Rocs",
        "Description[ru]": "Формат файлов графов Rocs",
        "Description[sk]": "Súborový formát grafi Rocs",
        "Description[sl]": "Vrsta datotek z grafi Rocs",
        "Description[sv]": "Rocs-graffilformat",
        "Description[tr]": "Rocs Grafik Dosya Biçimi",
        "Description[uk]": "формат файлів графів Rocs",
        "Description[x-test]": "xxRocs Graph File Formatxx",
        "Description[zh_CN]": "Rocs 图形文件格式",
        "Description[zh_TW]": "Rocs 圖形檔案格式",
        "Id": "rocs_rocs2fileformat",
        "License": "GPL",
        "Name": "Rocs File Format",
        "Name[ca@valencia]": "Format de fitxer de Rocs",
        "Name[ca]": "Format de fitxer del Rocs",
        "Name[cs]": "Formát souborů Rocs",
        "Name[de]": "Rocs-Dateiformat",
        "Name[el]": "Τύπος αποθήκευσης αρχείων του Rocs",
        "Name[en_GB]": "Rocs File Format",
        "Name[es]": "Formato de archivo de Rocs",
        "Name[et]": "Rocsi failivorming",
        "Name[eu]": "Rocs fitxategi-formatua",
        "Name[fi]": "Rocsin tiedostomuoto",
        "Name[fr]": "Format de fichier Rocs",
        "Name[gl]": "Formato de ficheiro de Rocs",
        "Name[it]": "Formato di file di Rocs",
        "Name[ko]": "Rocs 파일 형식",
        "Name[nl]": "Rocs-bestandsformaat",
        "Name[pl]": "Format plików Rocs",
        "Name[pt]": "Formato de Ficheiro do Rocs",
        "Name[pt_BR]": "Formato de arquivo do Rocs",
        "Name[ru]": "Поддержка файлов графов Rocs",
        "Name[sk]": "Súborový formát Rocs",
        "Name[sl]": "Vrsta datotek Rocs",
        "Name[sv]": "Rocs-filformat",
        "Name[tr]": "Rocs Dosya Biçimi",
        "Name[uk]": "формат файлів Rocs",
        "Name[x-test]": "xxRocs File Formatxx",
        "Name[zh_CN]": "Rocs 文件格式",
        "Name[zh_TW]": "Rocs 檔案格式",
        "Version": "0.1"
    }
}
